<?xml version="1.0" standalone="no"?>
<!DOCTYPE svg PUBLIC "-//W3C//DTD SVG 1.1//EN" "http://www.w3.org/Graphics/SVG/1.1/DTD/svg11.dtd" >
<svg xmlns="http://www.w3.org/2000/svg">
<metadata>Generated by IcoMoon</metadata>
<defs>
<font id="iot" horiz-adv-x="1024">
<font-face units-per-em="1024" ascent="960" descent="-64" />
<missing-glyph horiz-adv-x="1024" />
<glyph unicode="&#x20;" horiz-adv-x="512" d="" />
<glyph unicode="&#xe900;" glyph-name="attention" horiz-adv-x="1113" d="M1102.893 82.599l-0.011 0.022c-74.106 151.997-198.311 367.571-307.901 557.768-57.333 99.551-111.505 193.547-150.662 264.993-18.477 33.736-51.311 53.894-87.819 53.894s-69.343-20.146-87.819-53.894c-39.179-71.491-93.373-165.587-150.773-265.194-109.523-190.152-233.683-405.638-307.757-557.601-6.381-12.688-10.127-27.647-10.151-43.479v-0.008c0-55.207 44.589-100.118 99.417-100.118h914.209c54.829 0 99.417 44.911 99.417 100.118-0.022 15.843-3.768 30.807-10.41 44.068l0.259-0.571zM1013.626-14.659h-914.154c-29.24 0-53.037 24.142-53.037 53.76 0 7.925 1.837 15.738 5.454 23.185 73.372 150.495 197.098 365.267 306.254 554.741 57.511 99.84 111.839 194.148 151.24 266.073 20.424 37.32 73.873 37.32 94.297 0 39.379-71.88 93.651-166.099 151.129-265.85 109.223-189.551 232.993-404.402 306.387-554.941 3.651-7.469 5.476-15.282 5.476-23.207 0-29.618-23.797-53.76-53.025-53.76zM556.522 727.374c-0.003 0-0.007 0-0.011 0-12.798 0-23.174-10.375-23.174-23.174 0-0.008 0-0.016 0-0.024v0.001-463.761c0-12.808 10.383-23.19 23.19-23.19s23.19 10.383 23.19 23.19v0 463.761c0 0.007 0 0.014 0 0.022 0 12.798-10.375 23.174-23.174 23.174-0.008 0-0.016 0-0.023 0h0.001zM579.706 101.309c0-12.805-10.38-23.185-23.185-23.185s-23.185 10.38-23.185 23.185c0 12.805 10.38 23.185 23.185 23.185s23.185-10.38 23.185-23.185z" />
<glyph unicode="&#xe901;" glyph-name="cubes" d="M509.949 959.936c-4.107-0.28-7.883-1.463-11.207-3.349l0.13 0.067-249.436-144.41c-7.904-4.625-13.13-13.072-13.13-22.74 0-0.082 0-0.163 0.002-0.247v0.013-260.103l-222.769-123.897c-8.133-4.567-13.538-13.139-13.538-22.973 0 0 0-0.002 0-0.002v0-288.82c0.087-9.912 5.651-18.505 13.809-22.905l0.139-0.069 249.436-131.282c3.615-1.997 7.928-3.173 12.513-3.173s8.897 1.175 12.649 3.242l-0.136-0.069 223.59 124.308 223.59-124.308c3.615-1.997 7.928-3.173 12.513-3.173s8.897 1.175 12.649 3.242l-0.136-0.069 249.436 131.282c8.298 4.47 13.862 13.062 13.949 22.963v288.832c0 0 0 0.002 0 0.002 0 9.833-5.405 18.404-13.407 22.904l-0.131 0.069-222.769 123.897v260.103c0 0.069 0.002 0.151 0.002 0.234 0 9.668-5.224 18.115-13.005 22.673l-0.123 0.067-249.436 144.41c-3.194 1.819-6.97 3.002-10.995 3.277l-0.082 0.005c-0.306 0.013-0.665 0.021-1.026 0.021s-0.72-0.008-1.077-0.022l0.051 0.002c-0.306 0.013-0.665 0.021-1.026 0.021s-0.72-0.008-1.077-0.022l0.051 0.002zM512 903.32l195.282-112.821-195.282-102.564-195.282 102.564 195.282 112.821zM288.821 746.192l196.923-103.795v-225.231l-196.923 112v217.026zM735.179 746.192v-217.026l-196.923-112v225.231l196.923 103.795zM262.564 483.628l196.103-111.179-182.974-104.205-196.103 113.641 182.974 101.744zM761.436 483.628l182.974-101.744-196.103-113.641-182.974 104.205 196.103 111.179zM52.513 337.167l196.923-114.051v-217.026l-196.923 103.385v227.692zM971.487 337.167v-227.692l-196.923-103.385v217.026l196.923 114.051zM485.744 326.91v-217.846l-183.795-102.154v215.795l183.795 104.205zM538.256 326.91l183.795-104.205v-215.795l-183.795 102.154v217.846z" />
<glyph unicode="&#xe902;" glyph-name="go-back-left-arrow" d="M1024 511.961h-780.761l358.4 358.4-89.639 89.639-512-512 512-512 89.639 89.561-358.4 358.4h780.761z" />
<glyph unicode="&#xe903;" glyph-name="arrow-down" horiz-adv-x="819" d="M408.578 251.136c-3.625 0-7.235 1.322-10.088 3.952l-393.711 363.997c-6.032 5.571-6.404 14.976-0.833 20.993 5.571 6.047 14.96 6.404 20.993 0.833l383.654-354.711 385.495 354.711c6.016 5.542 15.436 5.17 20.993-0.877 5.542-6.047 5.17-15.436-0.892-20.993l-395.568-363.997c-2.838-2.6-6.448-3.908-10.044-3.908z" />
<glyph unicode="&#xe904;" glyph-name="user" d="M507.482 958.193c-273.769 0-496.64-222.81-496.64-496.64s222.81-496.64 496.64-496.64c273.83 0 496.64 222.81 496.64 496.64 0 273.769-222.81 496.64-496.64 496.64zM507.482 55.206c-224.297 0.274-406.047 182.045-406.287 406.324v0.023c0.274 224.276 182.011 406.013 406.26 406.287h0.027c224.323-0.24 406.108-182.025 406.347-406.325v-0.023c-0.24-224.323-182.025-406.108-406.325-406.347h-0.023zM507.482 777.608c-99.693-0.103-180.483-80.892-180.585-180.575v-0.010c0.069-99.719 80.871-180.543 180.576-180.646h0.010c99.714 0.103 180.517 80.927 180.585 180.639v0.006c-0.103 99.693-80.892 180.483-180.575 180.585h-0.010zM507.482 506.669c-49.901 0-90.353 40.452-90.353 90.353v0c0.034 49.875 40.474 90.293 90.353 90.293v0c49.901 0 90.353-40.452 90.353-90.353v0c-0.034-49.875-40.474-90.293-90.353-90.293v0zM638.494 326.084h-262.024c-77.101 0-139.866-61.079-139.866-136.132v-119.025c0-0.001 0-0.002 0-0.004 0-16.609 8.963-31.125 22.316-38.974l0.212-0.115c71.211-41.967 156.868-66.804 248.316-66.921h0.034c91.482 0.118 177.139 24.955 250.68 68.188l-2.33-1.266c13.564 7.95 22.528 22.455 22.528 39.054 0 0.013 0 0.027 0 0.040v-0.002 118.965c0 75.113-62.765 136.192-139.866 136.192zM688.068 97.852c-112.339-56.019-248.772-56.019-361.171 0v92.040c0 25.299 22.287 45.899 49.634 45.899h261.903c27.407 0 49.634-20.6 49.634-45.899v-92.040z" />
<glyph unicode="&#xe905;" glyph-name="magnifying-glass" d="M1011.439 8.704l-246.17 246.17c60.811 73.821 97.685 169.342 97.685 273.476 0 238.32-193.137 431.531-431.429 431.65h-0.012c-238.257-0.081-431.372-193.245-431.372-431.514 0-238.318 193.195-431.514 431.514-431.514 104.045 0 199.489 36.823 274.011 98.148l-0.745-0.595 246.17-245.965c7.714-7.74 18.385-12.528 30.174-12.528 23.527 0 42.6 19.073 42.6 42.6 0 11.738-4.748 22.368-12.427 30.073l0.001-0.001zM431.514 182.784c-190.915 0.155-345.645 154.861-345.839 345.752v0.019c0.233 190.908 154.931 345.606 345.816 345.839h0.023c190.906-0.272 345.597-154.938 345.907-345.809v-0.030c-0.31-190.873-155.018-345.508-345.888-345.702h-0.019z" />
<glyph unicode="&#xe906;" glyph-name="network" d="M509.901 686.080c-127.795 0-231.765-103.97-231.765-231.765 0-127.778 103.97-231.765 231.765-231.765 127.778 0 231.765 103.987 231.765 231.765 0 127.795-103.987 231.765-231.765 231.765zM509.901 264.704c-104.585 0-189.645 85.043-189.645 189.611 0 104.585 85.060 189.628 189.645 189.628 104.567 0 189.611-85.043 189.611-189.611 0-104.585-85.043-189.645-189.611-189.645zM509.901 601.805c-46.532-0.039-84.244-37.745-84.292-84.27v-0.005c0.049-46.53 37.76-84.236 84.288-84.275h0.004c46.524 0.049 84.227 37.751 84.275 84.27v0.005c-0.049 46.524-37.751 84.227-84.27 84.275h-0.005zM509.901 475.392c-23.274 0.019-42.135 18.881-42.155 42.153v0.002c0.039 23.259 18.893 42.101 42.153 42.121h0.002c23.26-0.029 42.108-18.877 42.138-42.135v-0.003c-0.019-23.274-18.881-42.135-42.153-42.155h-0.002zM571.017 391.117h-122.249c-36.011 0-65.297-28.501-65.297-63.539v-55.535c0-7.509 4.011-14.473 10.513-18.261 33.238-19.588 73.218-31.18 115.902-31.232h0.015c40.516 0 80.589 10.803 115.9 31.232 6.502 3.755 10.513 10.752 10.513 18.244v55.535c0 35.038-29.286 63.556-65.297 63.556zM594.176 284.604c-52.446-26.112-116.122-26.112-168.567 0v42.957c0 11.81 10.394 21.402 23.159 21.402h122.249c12.766 0 23.159-9.591 23.159-21.402v-42.957zM509.901 960c-46.532-0.039-84.244-37.745-84.292-84.27v-0.005c0.049-46.524 37.751-84.227 84.27-84.275h0.005c46.532 0.039 84.244 37.745 84.292 84.27v0.005c-0.049 46.524-37.751 84.227-84.27 84.275h-0.005zM509.901 833.587c-23.268 0.019-42.126 18.871-42.155 42.135v0.003c0.029 23.266 18.887 42.118 42.153 42.138h0.002c23.266-0.029 42.118-18.887 42.138-42.153v-0.002c-0.039-23.259-18.893-42.101-42.153-42.121h-0.002zM509.901 833.587c-11.639 0-21.077-9.421-21.077-21.077v-147.49c0-11.641 9.437-21.077 21.077-21.077s21.077 9.437 21.077 21.077v147.49c0 11.657-9.455 21.077-21.077 21.077zM1024 450.099c-0.039 46.532-37.745 84.244-84.27 84.292h-0.005c-46.524-0.049-84.227-37.751-84.275-84.27v-0.005c0.039-46.532 37.745-84.244 84.27-84.292h0.005c46.524 0.049 84.227 37.751 84.275 84.27v0.005zM897.587 450.099c0.019 23.268 18.871 42.126 42.135 42.155h0.003c23.266-0.029 42.118-18.887 42.138-42.153v-0.002c-0.029-23.266-18.887-42.118-42.153-42.138h-0.002c-23.259 0.039-42.101 18.893-42.121 42.153v0.002zM897.587 450.099c0 11.639-9.421 21.077-21.077 21.077h-147.49c-11.641 0-21.077-9.437-21.077-21.077s9.437-21.077 21.077-21.077h147.49c11.657 0 21.077 9.455 21.077 21.077zM0 450.099c0.039 46.532 37.745 84.244 84.27 84.292h0.005c46.524-0.049 84.227-37.751 84.275-84.27v-0.005c-0.039-46.532-37.745-84.244-84.27-84.292h-0.005c-46.524 0.049-84.227 37.751-84.275 84.27v0.005zM126.413 450.099c-0.019 23.268-18.871 42.126-42.135 42.155h-0.003c-23.266-0.029-42.118-18.887-42.138-42.153v-0.002c0.029-23.266 18.887-42.118 42.153-42.138h0.002c23.259 0.039 42.101 18.893 42.121 42.153v0.002zM126.413 450.099c0 11.639 9.421 21.077 21.077 21.077h147.49c11.641 0 21.077-9.437 21.077-21.077s-9.437-21.077-21.077-21.077h-147.49c-0.005 0-0.011 0-0.017 0-11.631 0-21.060 9.429-21.060 21.060 0 0.006 0 0.012 0 0.018v-0.001zM514.116 112.981c-46.532-0.039-84.244-37.745-84.292-84.27v-0.005c0.049-46.524 37.751-84.227 84.27-84.275h0.005c46.532 0.039 84.244 37.745 84.292 84.27v0.005c-0.049 46.524-37.751 84.227-84.27 84.275h-0.005zM514.116-13.431c-23.274 0.019-42.135 18.881-42.155 42.153v0.002c0.039 23.259 18.893 42.101 42.153 42.121h0.002c23.26-0.029 42.108-18.877 42.138-42.135v-0.003c-0.029-23.266-18.887-42.118-42.153-42.138h-0.002zM514.099 264.704c-11.622 0-21.060-9.438-21.060-21.077v-147.49c0-11.636 9.433-21.069 21.069-21.069s21.069 9.433 21.069 21.069v0 147.49c0 11.639-9.438 21.060-21.077 21.060z" />
<glyph unicode="&#xe907;" glyph-name="hex-plus" horiz-adv-x="967" d="M895.131 736.014l-368.175 212.497c-26.4 15.318-60.511 15.318-86.911 0l-368.175-212.497c-26.833-15.536-43.455-44.324-43.455-75.287v-425.211c0-30.962 16.622-59.751 43.455-75.287l368.175-212.497c13.145-7.713 28.246-11.732 43.455-11.732s30.311 4.020 43.455 11.732l368.175 212.497c26.833 15.536 43.455 44.324 43.455 75.287v425.211c0 30.962-16.622 59.751-43.455 75.287zM895.131 235.517c0-15.427-8.257-29.876-21.728-37.588l-368.175-212.605c-13.145-7.604-30.311-7.604-43.455 0l-368.175 212.605c-13.471 7.713-21.728 22.163-21.728 37.588v425.211c0 15.427 8.257 29.876 21.728 37.588l368.175 212.605c6.627 3.802 14.124 5.867 21.728 5.867s15.101-2.063 21.728-5.867l368.175-212.605c13.471-7.713 21.728-22.163 21.728-37.588v-425.211zM700.777 469.85v-43.455h-195.549v-195.549h-43.455v195.549h-195.549v43.455h195.549v195.549h43.455v-195.549z" />
<glyph unicode="&#xe908;" glyph-name="trash-bin" horiz-adv-x="910" d="M280.064 609.906h69.973v-420.068h-69.973zM420.124 609.906h69.973v-420.068h-69.973zM560.128 609.906h69.973v-420.068h-69.973zM700.188 819.94v140.060h-490.155v-140.060h-210.034v-69.973h69.973v-770.219h770.276v770.219h69.973v69.973h-210.034zM280.064 890.027h350.094v-69.973h-350.094v69.973zM770.162 49.778h-630.101v700.188h630.101v-700.188z" />
<glyph unicode="&#xe909;" glyph-name="circle-arrow-down" d="M512 960c-282.629 0-512-229.371-512-512s229.371-512 512-512c282.629 0 512 229.371 512 512s-229.371 512-512 512zM512 936.186c269.759 0 488.186-218.427 488.186-488.186s-218.427-488.186-488.186-488.186c-269.759 0-488.186 218.427-488.186 488.186s218.427 488.186 488.186 488.186zM249.302 579.349c-6.378-0.251-11.453-5.483-11.453-11.9 0-3.177 1.244-6.064 3.272-8.199l-0.004 0.006 261.953-285.767c2.193-2.477 5.379-4.031 8.93-4.031s6.737 1.554 8.919 4.017l0.012 0.013 261.953 285.767c1.9 2.112 3.061 4.922 3.061 8.003 0 6.622-5.368 11.99-11.99 11.99-3.544 0-6.728-1.536-8.923-3.981l-0.010-0.012-253.023-276.093-253.023 276.093c-2.196 2.525-5.413 4.112-9.001 4.112-0.237 0-0.472-0.007-0.705-0.020l0.032 0.001z" />
<glyph unicode="&#xe90a;" glyph-name="device_types" d="M955.994 278.316c-30.401-0.043-56.129-19.996-64.848-47.518l-0.132-0.482h-30.062l-97.932 97.932v239.503l97.932 97.915h30.062c8.85-28.004 34.579-47.956 64.975-48h0.005c37.543 0.039 67.967 30.463 68.007 68.003v0.004c-0.039 37.543-30.463 67.967-68.003 68.007h-0.004c-30.401-0.043-56.129-19.996-64.848-47.518l-0.132-0.482h-38.356c-5.301 0-10.379-2.12-14.142-5.865l-99.009-99.009-207.508 114.963v111.219c28.009 8.852 47.964 34.589 48 64.993v0.004c-0.039 37.543-30.463 67.967-68.003 68.007h-0.004c-37.536-0.049-67.95-30.469-67.99-68.003v-0.004c0-30.541 20.229-56.43 48-64.98v-111.236l-207.508-114.963-99.009 99.009c-3.619 3.621-8.618 5.862-14.142 5.865h-38.356c-8.85 28.004-34.579 47.956-64.975 48h-0.005c-37.543-0.039-67.967-30.463-68.007-68.003v-0.004c0.039-37.537 30.453-67.958 67.985-68.007h0.005c30.541 0 56.43 20.246 64.997 48h30.062l97.932-97.915v-239.52l-97.932-97.898h-30.062c-8.85 28.004-34.579 47.956-64.975 48h-0.005c-37.543-0.039-67.967-30.463-68.007-68.003v-0.004c0.039-37.537 30.453-67.958 67.985-68.007h0.005c30.541 0 56.43 20.246 64.997 48h38.356c5.301 0 10.379 2.12 14.142 5.865l99.009 99.009 24.726-13.697c2.684-1.429 5.87-2.267 9.251-2.267 11.050 0 20.007 8.957 20.007 20.007 0 7.311-3.922 13.706-9.775 17.197l-0.091 0.051-27.634 15.305v210.279l191.024-105.849v-210.262l-188.117 104.224c-2.684 1.429-5.87 2.267-9.251 2.267-11.050 0-20.007-8.957-20.007-20.007 0-7.311 3.922-13.706 9.775-17.197l0.091-0.051 207.508-114.963v-111.219c-28.009-8.852-47.964-34.589-48-64.993v-0.004c0.039-37.537 30.453-67.958 67.985-68.007h0.005c37.543 0.039 67.967 30.463 68.007 68.003v0.004c0 30.541-20.229 56.43-48 64.98v111.236l207.508 114.963 99.009-99.009c3.762-3.762 8.84-5.865 14.142-5.865h38.356c8.85-28.004 34.579-47.956 64.975-48h0.005c37.543 0.039 67.967 30.463 68.007 68.003v0.004c-0.039 37.543-30.463 67.967-68.003 68.007h-0.004zM955.994 713.683c15.461-0.019 27.991-12.548 28.010-28.008v-0.002c-0.019-15.461-12.548-27.991-28.008-28.010h-0.002c-15.454 0.029-27.974 12.554-27.993 28.008v0.002c0.029 15.448 12.544 27.964 27.99 27.993h0.003zM67.992 657.663c-15.454 0.029-27.974 12.554-27.993 28.008v0.002c0.029 15.454 12.554 27.974 28.008 27.993h0.002c15.448-0.029 27.964-12.544 27.993-27.99v-0.003c-0.019-15.455-12.538-27.981-27.99-28.010h-0.003zM67.992 182.317c-15.448 0.029-27.964 12.544-27.993 27.99v0.003c0.019 15.461 12.548 27.991 28.008 28.010h0.002c15.454-0.029 27.974-12.554 27.993-28.008v-0.002c-0.029-15.448-12.544-27.964-27.99-27.993h-0.003zM484.017 891.984c0.019 15.455 12.538 27.981 27.99 28.010h0.003c15.461-0.019 27.991-12.548 28.010-28.008v-0.002c-0.029-15.454-12.554-27.974-28.008-27.993h-0.002c-15.448 0.029-27.964 12.544-27.993 27.99v0.003zM540.020 3.982c-0.029-15.454-12.554-27.974-28.008-27.993h-0.002c-15.454 0.029-27.974 12.554-27.993 28.008v0.002c0.029 15.448 12.544 27.964 27.99 27.993h0.003c15.455-0.019 27.981-12.538 28.010-27.99v-0.003zM723.041 331.788l-191.024-105.849v210.262l203.131 112.603c6.337 3.442 10.568 10.047 10.568 17.64 0 11.050-8.957 20.007-20.007 20.007-3.669 0-7.108-0.988-10.065-2.712l0.095 0.051-203.746-112.928-189.742 105.131 189.742 105.131 211.014-116.913v-232.44zM956.011 182.317c-15.448 0.029-27.964 12.544-27.993 27.99v0.003c0.019 15.455 12.538 27.981 27.99 28.010h0.003c15.461-0.019 27.991-12.548 28.010-28.008v-0.002c-0.029-15.454-12.554-27.974-28.008-27.993h-0.002z" />
</font></defs></svg>